[
    {
        "scope": "https://api.agentpaid.io:443",
        "method": "GET",
        "path": "/api/v2/customers/?limit=5",
        "body": "",
        "status": 200,
        "response": {
            "data": [
                {
                    "id": "cus_5hGmHQ8Q6q5",
                    "name": "SDK-TRACING-2026-02-13-1607-a8cb67eda23e298f282b1c90e42dfa60abc3af9f-Customer",
                    "legalName": null,
                    "email": "",
                    "phone": "",
                    "website": "",
                    "externalId": "SDK-TRACING-2026-02-13-1607-a8cb67eda23e298f282b1c90e42dfa60abc3af9f-external-customer",
                    "billingAddress": {
                        "line1": "123 Test Street",
                        "city": "Test City",
                        "country": "US"
                    },
                    "creationState": "active",
                    "churnDate": null,
                    "vatNumber": null,
                    "metadata": null,
                    "defaultCurrency": "USD",
                    "createdAt": "2026-02-13T16:07:36.673Z",
                    "updatedAt": "2026-02-13T16:07:36.673Z"
                },
                {
                    "id": "cus_5hGmGeMsgGo",
                    "name": "SDK-2026-02-13-1607-a8cb67eda23e298f282b1c90e42dfa60abc3af9f-Customer",
                    "legalName": null,
                    "email": "",
                    "phone": "",
                    "website": "",
                    "externalId": null,
                    "billingAddress": {
                        "line1": "456 Updated Street",
                        "city": "Updated City",
                        "country": "US"
                    },
                    "creationState": "active",
                    "churnDate": null,
                    "vatNumber": null,
                    "metadata": null,
                    "defaultCurrency": "USD",
                    "createdAt": "2026-02-13T16:07:29.824Z",
                    "updatedAt": "2026-02-13T16:07:29.913Z"
                },
                {
                    "id": "cus_5hGm5wB6WbH",
                    "name": "AISDK-2026-02-13-1605 Customer",
                    "legalName": null,
                    "email": "test-1770998752579@example.com",
                    "phone": "",
                    "website": "",
                    "externalId": "AISDK-2026-02-13-1605-customer",
                    "billingAddress": null,
                    "creationState": "active",
                    "churnDate": null,
                    "vatNumber": null,
                    "metadata": null,
                    "defaultCurrency": "GBP",
                    "createdAt": "2026-02-13T16:05:52.615Z",
                    "updatedAt": "2026-02-13T16:05:52.615Z"
                },
                {
                    "id": "cus_5hGm3u2jqH1",
                    "name": "SDK-TRACING-2026-02-13-1605-4aa37b99e130c6158a479a9902bf10ce27a5fee1-Customer",
                    "legalName": null,
                    "email": "",
                    "phone": "",
                    "website": "",
                    "externalId": "SDK-TRACING-2026-02-13-1605-4aa37b99e130c6158a479a9902bf10ce27a5fee1-external-customer",
                    "billingAddress": {
                        "line1": "123 Test Street",
                        "city": "Test City",
                        "country": "US"
                    },
                    "creationState": "active",
                    "churnDate": null,
                    "vatNumber": null,
                    "metadata": null,
                    "defaultCurrency": "USD",
                    "createdAt": "2026-02-13T16:05:34.128Z",
                    "updatedAt": "2026-02-13T16:05:34.128Z"
                },
                {
                    "id": "cus_5hGm3A6odUs",
                    "name": "SDK-2026-02-13-1605-4aa37b99e130c6158a479a9902bf10ce27a5fee1-Customer",
                    "legalName": null,
                    "email": "",
                    "phone": "",
                    "website": "",
                    "externalId": null,
                    "billingAddress": {
                        "line1": "456 Updated Street",
                        "city": "Updated City",
                        "country": "US"
                    },
                    "creationState": "active",
                    "churnDate": null,
                    "vatNumber": null,
                    "metadata": null,
                    "defaultCurrency": "USD",
                    "createdAt": "2026-02-13T16:05:27.410Z",
                    "updatedAt": "2026-02-13T16:05:27.447Z"
                }
            ],
            "pagination": {
                "limit": 5,
                "offset": 0,
                "total": 81,
                "hasMore": true
            }
        },
        "rawHeaders": {
            "access-control-allow-credentials": "true",
            "connection": "keep-alive",
            "content-length": "2380",
            "content-type": "application/json; charset=utf-8",
            "date": "Mon, 16 Feb 2026 15:59:35 GMT",
            "etag": "W/\"94c-ZJFQ8SrflIZBtH2K248VA65ehBI\"",
            "vary": "Origin",
            "x-powered-by": "Express"
        },
        "responseIsBinary": false
    }
]