[
    {
        "scope": "https://api.agentpaid.io:443",
        "method": "GET",
        "path": "/api/v2/invoices/?limit=5",
        "body": "",
        "status": 200,
        "response": {
            "data": [
                {
                    "id": "inv_5hGm61vYmBd",
                    "displayNumber": "INV-0048",
                    "orderId": "4fa40d45-c745-43e0-a445-dd0837337eb3",
                    "customerId": "1ecf3b41-215c-4dee-8d0a-2aa8da62cbd9",
                    "status": "draft",
                    "paymentStatus": "pending",
                    "source": "order_based",
                    "startDate": "2026-02-13T00:00:00.000Z",
                    "endDate": "2026-03-12T00:00:00.000Z",
                    "issueDate": "2026-02-13T00:00:00.000Z",
                    "postedDate": null,
                    "dueDate": "2026-03-15T00:00:00.000Z",
                    "currency": "USD",
                    "taxAmount": 0,
                    "taxRate": 0,
                    "taxStatus": "not_applicable",
                    "invoiceTotalExcludingTax": 100000,
                    "invoiceTotal": 100000,
                    "amountDue": 100000,
                    "amountPaid": 0,
                    "amountRemaining": 100000,
                    "creditNotesTotal": 0,
                    "metadata": null,
                    "createdAt": "2026-02-13T16:05:53.358Z",
                    "updatedAt": "2026-02-13T16:05:53.410Z",
                    "paymentLink": "",
                    "disputeLink": "https://app.paid.ai/public/disputes?token=REDACTED",
                    "publicUrlToken": "REDACTED",
                    "taxExempt": false,
                    "billingContactId": null
                },
                {
                    "id": "inv_5hGhKgQL8b9",
                    "displayNumber": "INV-0047",
                    "orderId": "79c1d7b9-7c6b-42c7-98ec-39ace513f3d3",
                    "customerId": "237cf7fc-fa2b-4446-be42-1186c83cfd2d",
                    "status": "draft",
                    "paymentStatus": "pending",
                    "source": "order_based",
                    "startDate": "2026-02-13T00:00:00.000Z",
                    "endDate": "2026-03-12T00:00:00.000Z",
                    "issueDate": "2026-02-13T00:00:00.000Z",
                    "postedDate": null,
                    "dueDate": "2026-03-15T00:00:00.000Z",
                    "currency": "USD",
                    "taxAmount": 0,
                    "taxRate": 0,
                    "taxStatus": "not_applicable",
                    "invoiceTotalExcludingTax": 100000,
                    "invoiceTotal": 100000,
                    "amountDue": 100000,
                    "amountPaid": 0,
                    "amountRemaining": 100000,
                    "creditNotesTotal": 0,
                    "metadata": null,
                    "createdAt": "2026-02-13T15:32:51.674Z",
                    "updatedAt": "2026-02-13T15:32:51.740Z",
                    "paymentLink": "",
                    "disputeLink": "https://app.paid.ai/public/disputes?token=REDACTED",
                    "publicUrlToken": "REDACTED",
                    "taxExempt": false,
                    "billingContactId": null
                },
                {
                    "id": "inv_5hGfa6n6yhR",
                    "displayNumber": "INV-0046",
                    "orderId": "de3d7c7d-3c30-4e48-8e2f-52df4ed5e497",
                    "customerId": "9480625f-7e59-4d98-a118-4bf487ac94e0",
                    "status": "draft",
                    "paymentStatus": "pending",
                    "source": "order_based",
                    "startDate": "2026-02-13T00:00:00.000Z",
                    "endDate": "2026-03-12T00:00:00.000Z",
                    "issueDate": "2026-02-13T00:00:00.000Z",
                    "postedDate": null,
                    "dueDate": "2026-03-15T00:00:00.000Z",
                    "currency": "USD",
                    "taxAmount": 0,
                    "taxRate": 0,
                    "taxStatus": "not_applicable",
                    "invoiceTotalExcludingTax": 100000,
                    "invoiceTotal": 100000,
                    "amountDue": 100000,
                    "amountPaid": 0,
                    "amountRemaining": 100000,
                    "creditNotesTotal": 0,
                    "metadata": null,
                    "createdAt": "2026-02-13T15:17:29.707Z",
                    "updatedAt": "2026-02-13T15:17:29.781Z",
                    "paymentLink": "",
                    "disputeLink": "https://app.paid.ai/public/disputes?token=REDACTED",
                    "publicUrlToken": "REDACTED",
                    "taxExempt": false,
                    "billingContactId": null
                },
                {
                    "id": "inv_5hGf6CVRvqD",
                    "displayNumber": "INV-0045",
                    "orderId": "89c1f542-c435-42b1-8d18-efca575dbbf5",
                    "customerId": "aa0b2e42-73c5-4219-be7f-a6d28b6e28e3",
                    "status": "draft",
                    "paymentStatus": "pending",
                    "source": "order_based",
                    "startDate": "2026-02-13T00:00:00.000Z",
                    "endDate": "2026-03-12T00:00:00.000Z",
                    "issueDate": "2026-02-13T00:00:00.000Z",
                    "postedDate": null,
                    "dueDate": "2026-03-15T00:00:00.000Z",
                    "currency": "USD",
                    "taxAmount": 0,
                    "taxRate": 0,
                    "taxStatus": "not_applicable",
                    "invoiceTotalExcludingTax": 100000,
                    "invoiceTotal": 100000,
                    "amountDue": 100000,
                    "amountPaid": 0,
                    "amountRemaining": 100000,
                    "creditNotesTotal": 0,
                    "metadata": null,
                    "createdAt": "2026-02-13T15:13:16.465Z",
                    "updatedAt": "2026-02-13T15:13:16.538Z",
                    "paymentLink": "",
                    "disputeLink": "https://app.paid.ai/public/disputes?token=REDACTED",
                    "publicUrlToken": "REDACTED",
                    "taxExempt": false,
                    "billingContactId": null
                },
                {
                    "id": "inv_5hGecSMKS3R",
                    "displayNumber": "INV-0044",
                    "orderId": "9db0b01c-687d-4603-9482-f30bf291f756",
                    "customerId": "4721d616-dcd5-45d3-8172-db82b946cfdd",
                    "status": "draft",
                    "paymentStatus": "pending",
                    "source": "order_based",
                    "startDate": "2026-02-13T00:00:00.000Z",
                    "endDate": "2026-03-12T00:00:00.000Z",
                    "issueDate": "2026-02-13T00:00:00.000Z",
                    "postedDate": null,
                    "dueDate": "2026-03-15T00:00:00.000Z",
                    "currency": "USD",
                    "taxAmount": 0,
                    "taxRate": 0,
                    "taxStatus": "not_applicable",
                    "invoiceTotalExcludingTax": 100000,
                    "invoiceTotal": 100000,
                    "amountDue": 100000,
                    "amountPaid": 0,
                    "amountRemaining": 100000,
                    "creditNotesTotal": 0,
                    "metadata": null,
                    "createdAt": "2026-02-13T15:09:04.498Z",
                    "updatedAt": "2026-02-13T15:09:04.575Z",
                    "paymentLink": "",
                    "disputeLink": "https://app.paid.ai/public/disputes?token=REDACTED",
                    "publicUrlToken": "REDACTED",
                    "taxExempt": false,
                    "billingContactId": null
                }
            ],
            "pagination": {
                "limit": 5,
                "offset": 0,
                "total": 48,
                "hasMore": true
            }
        },
        "rawHeaders": {
            "access-control-allow-credentials": "true",
            "connection": "keep-alive",
            "content-length": "5912",
            "content-type": "application/json; charset=utf-8",
            "date": "Mon, 16 Feb 2026 15:59:36 GMT",
            "etag": "W/\"1718-8dMxHJ+UBjBH9zDJVBUcJzchyDM\"",
            "vary": "Origin",
            "x-powered-by": "Express"
        },
        "responseIsBinary": false
    }
]