[
    {
        "scope": "https://api.agentpaid.io:443",
        "method": "GET",
        "path": "/api/v2/orders/?limit=5",
        "body": "",
        "status": 200,
        "response": {
            "data": [
                {
                    "id": "ord_5hGmGgNdCiT",
                    "customerId": "f9ddaaf4-cb0b-4818-b9af-062fd6358593",
                    "billingCustomerId": "f9ddaaf4-cb0b-4818-b9af-062fd6358593",
                    "billingContactIds": [],
                    "createdAt": "2026-02-13T16:07:30.139Z",
                    "updatedAt": "2026-02-13T16:07:30.139Z",
                    "endDate": null,
                    "name": "",
                    "startDate": "2026-02-13T16:07:30.139Z",
                    "subscriptionTerms": null,
                    "billedAmountNoTax": 0,
                    "billedTax": 0,
                    "estimatedTax": 0,
                    "orderAmount": 0,
                    "pendingBillingAmount": 0,
                    "totalAmount": 0,
                    "totalBilledAmount": 0,
                    "creationState": "active",
                    "paymentTerms": "Net30",
                    "number": 75,
                    "metadata": null,
                    "showPaymentLink": true,
                    "showBankDetails": true,
                    "version": 1
                },
                {
                    "id": "ord_5hGm5zRP9rw",
                    "customerId": "1ecf3b41-215c-4dee-8d0a-2aa8da62cbd9",
                    "billingCustomerId": "1ecf3b41-215c-4dee-8d0a-2aa8da62cbd9",
                    "billingContactIds": [],
                    "createdAt": "2026-02-13T16:05:53.126Z",
                    "updatedAt": "2026-02-13T16:05:57.460Z",
                    "endDate": null,
                    "name": "",
                    "startDate": "2026-02-13T00:00:00.000Z",
                    "subscriptionTerms": null,
                    "billedAmountNoTax": 100000,
                    "billedTax": 0,
                    "estimatedTax": 0,
                    "orderAmount": 0,
                    "pendingBillingAmount": 0,
                    "totalAmount": 100002,
                    "totalBilledAmount": 100000,
                    "creationState": "active",
                    "paymentTerms": "Net30",
                    "number": 74,
                    "metadata": null,
                    "showPaymentLink": true,
                    "showBankDetails": true,
                    "version": 1
                },
                {
                    "id": "ord_5hGm3B5B4zT",
                    "customerId": "2db792d0-afc2-458f-80c3-87f65492aadd",
                    "billingCustomerId": "2db792d0-afc2-458f-80c3-87f65492aadd",
                    "billingContactIds": [],
                    "createdAt": "2026-02-13T16:05:27.564Z",
                    "updatedAt": "2026-02-13T16:05:27.564Z",
                    "endDate": null,
                    "name": "",
                    "startDate": "2026-02-13T16:05:27.564Z",
                    "subscriptionTerms": null,
                    "billedAmountNoTax": 0,
                    "billedTax": 0,
                    "estimatedTax": 0,
                    "orderAmount": 0,
                    "pendingBillingAmount": 0,
                    "totalAmount": 0,
                    "totalBilledAmount": 0,
                    "creationState": "active",
                    "paymentTerms": "Net30",
                    "number": 73,
                    "metadata": null,
                    "showPaymentLink": true,
                    "showBankDetails": true,
                    "version": 1
                },
                {
                    "id": "ord_5hGhKeWmbuZ",
                    "customerId": "237cf7fc-fa2b-4446-be42-1186c83cfd2d",
                    "billingCustomerId": "237cf7fc-fa2b-4446-be42-1186c83cfd2d",
                    "billingContactIds": [],
                    "createdAt": "2026-02-13T15:32:51.380Z",
                    "updatedAt": "2026-02-13T15:32:54.773Z",
                    "endDate": null,
                    "name": "",
                    "startDate": "2026-02-13T00:00:00.000Z",
                    "subscriptionTerms": null,
                    "billedAmountNoTax": 100000,
                    "billedTax": 0,
                    "estimatedTax": 0,
                    "orderAmount": 0,
                    "pendingBillingAmount": 0,
                    "totalAmount": 100002,
                    "totalBilledAmount": 100000,
                    "creationState": "active",
                    "paymentTerms": "Net30",
                    "number": 72,
                    "metadata": null,
                    "showPaymentLink": true,
                    "showBankDetails": true,
                    "version": 1
                },
                {
                    "id": "ord_5hGhGcbXyS7",
                    "customerId": "4b8d7da3-0934-4b5c-a9ae-38fe6c8eea7b",
                    "billingCustomerId": "4b8d7da3-0934-4b5c-a9ae-38fe6c8eea7b",
                    "billingContactIds": [],
                    "createdAt": "2026-02-13T15:32:23.851Z",
                    "updatedAt": "2026-02-13T15:32:23.851Z",
                    "endDate": null,
                    "name": "",
                    "startDate": "2026-02-13T15:32:23.851Z",
                    "subscriptionTerms": null,
                    "billedAmountNoTax": 0,
                    "billedTax": 0,
                    "estimatedTax": 0,
                    "orderAmount": 0,
                    "pendingBillingAmount": 0,
                    "totalAmount": 0,
                    "totalBilledAmount": 0,
                    "creationState": "active",
                    "paymentTerms": "Net30",
                    "number": 71,
                    "metadata": null,
                    "showPaymentLink": true,
                    "showBankDetails": true,
                    "version": 1
                }
            ],
            "pagination": {
                "limit": 5,
                "offset": 0,
                "total": 75,
                "hasMore": true
            }
        },
        "rawHeaders": {
            "access-control-allow-credentials": "true",
            "connection": "keep-alive",
            "content-length": "3062",
            "content-type": "application/json; charset=utf-8",
            "date": "Mon, 16 Feb 2026 15:59:35 GMT",
            "etag": "W/\"bf6-yI3/3D8YJrYzoFR1yI17HL/wFV0\"",
            "vary": "Origin",
            "x-powered-by": "Express"
        },
        "responseIsBinary": false
    }
]