[
    {
        "scope": "https://api.agentpaid.io:443",
        "method": "GET",
        "path": "/api/v2/products/?limit=5",
        "body": "",
        "status": 200,
        "response": {
            "data": [
                {
                    "id": "prod_5hGmHRJvuLB",
                    "name": "SDK-TRACING-2026-02-13-1607-a8cb67eda23e298f282b1c90e42dfa60abc3af9f-Product",
                    "description": "Test product for tracing e2e tests",
                    "createdAt": "2026-02-13T16:07:36.857Z",
                    "updatedAt": "2026-02-13T16:07:36.857Z",
                    "active": false,
                    "productCode": "",
                    "externalId": "SDK-TRACING-2026-02-13-1607-a8cb67eda23e298f282b1c90e42dfa60abc3af9f-external-product",
                    "archivedAt": null,
                    "metadata": null
                },
                {
                    "id": "prod_5hGmGdGu7bd",
                    "name": "SDK-2026-02-13-1607-a8cb67eda23e298f282b1c90e42dfa60abc3af9f-Product",
                    "description": "SDK smoke test product - updated",
                    "createdAt": "2026-02-13T16:07:29.654Z",
                    "updatedAt": "2026-02-13T16:07:29.745Z",
                    "active": false,
                    "productCode": "",
                    "externalId": null,
                    "archivedAt": null,
                    "metadata": null
                },
                {
                    "id": "prod_5hGm5voyBps",
                    "name": "AISDK-2026-02-13-1605 Product",
                    "description": "AI SDK E2E test product for tracing",
                    "createdAt": "2026-02-13T16:05:52.558Z",
                    "updatedAt": "2026-02-13T16:05:52.558Z",
                    "active": true,
                    "productCode": "",
                    "externalId": "AISDK-2026-02-13-1605-product",
                    "archivedAt": null,
                    "metadata": null
                },
                {
                    "id": "prod_5hGm3vXsWtF",
                    "name": "SDK-TRACING-2026-02-13-1605-4aa37b99e130c6158a479a9902bf10ce27a5fee1-Product",
                    "description": "Test product for tracing e2e tests",
                    "createdAt": "2026-02-13T16:05:34.363Z",
                    "updatedAt": "2026-02-13T16:05:34.363Z",
                    "active": false,
                    "productCode": "",
                    "externalId": "SDK-TRACING-2026-02-13-1605-4aa37b99e130c6158a479a9902bf10ce27a5fee1-external-product",
                    "archivedAt": null,
                    "metadata": null
                },
                {
                    "id": "prod_5hGm38azmqR",
                    "name": "SDK-2026-02-13-1605-4aa37b99e130c6158a479a9902bf10ce27a5fee1-Product",
                    "description": "SDK smoke test product - updated",
                    "createdAt": "2026-02-13T16:05:27.173Z",
                    "updatedAt": "2026-02-13T16:05:27.371Z",
                    "active": false,
                    "productCode": "",
                    "externalId": null,
                    "archivedAt": null,
                    "metadata": null
                }
            ],
            "pagination": {
                "limit": 5,
                "offset": 0,
                "total": 103,
                "hasMore": true
            }
        },
        "rawHeaders": {
            "access-control-allow-credentials": "true",
            "connection": "keep-alive",
            "content-length": "1824",
            "content-type": "application/json; charset=utf-8",
            "date": "Mon, 16 Feb 2026 15:59:34 GMT",
            "etag": "W/\"720-CZ2D5D8baJsGyMSk4lpzbM+zVdQ\"",
            "vary": "Origin",
            "x-powered-by": "Express"
        },
        "responseIsBinary": false
    }
]